%YAML 1.1
%TAG !u! tag:unity3d.com,2011:
--- !u!74 &7400000
AnimationClip:
  m_ObjectHideFlags: 0
  m_CorrespondingSourceObject: {fileID: 0}
  m_PrefabInstance: {fileID: 0}
  m_PrefabAsset: {fileID: 0}
  m_Name: a_PlayerWalk
  serializedVersion: 6
  m_Legacy: 0
  m_Compressed: 0
  m_UseHighQualityCurve: 1
  m_RotationCurves: []
  m_CompressedRotationCurves: []
  m_EulerCurves: []
  m_PositionCurves: []
  m_ScaleCurves: []
  m_FloatCurves: []
  m_PPtrCurves:
  - curve:
    - time: 0
      value: {fileID: -7221865514770959421, guid: af53ad7734c7e3e4aac6144b6f53990f, type: 3}
    - time: 0.11666667
      value: {fileID: 7109459470101515711, guid: af53ad7734c7e3e4aac6144b6f53990f, type: 3}
    - time: 0.21666667
      value: {fileID: 1520192549975761081, guid: af53ad7734c7e3e4aac6144b6f53990f, type: 3}
    - time: 0.33333334
      value: {fileID: 6710542926590696780, guid: af53ad7734c7e3e4aac6144b6f53990f, type: 3}
    - time: 0.43333334
      value: {fileID: 8961752267417923234, guid: af53ad7734c7e3e4aac6144b6f53990f, type: 3}
    - time: 0.56666666
      value: {fileID: -9169092748704697354, guid: af53ad7734c7e3e4aac6144b6f53990f, type: 3}
    - time: 0.6666667
      value: {fileID: -8331125957867574049, guid: af53ad7734c7e3e4aac6144b6f53990f, type: 3}
    - time: 0.78333336
      value: {fileID: -3910178557780502947, guid: af53ad7734c7e3e4aac6144b6f53990f, type: 3}
    - time: 0.8833333
      value: {fileID: 7180886126232182788, guid: af53ad7734c7e3e4aac6144b6f53990f, type: 3}
    - time: 1
      value: {fileID: -4682598717862603235, guid: af53ad7734c7e3e4aac6144b6f53990f, type: 3}
    attribute: m_Sprite
    path: 
    classID: 212
    script: {fileID: 0}
  m_SampleRate: 60
  m_WrapMode: 0
  m_Bounds:
    m_Center: {x: 0, y: 0, z: 0}
    m_Extent: {x: 0, y: 0, z: 0}
  m_ClipBindingConstant:
    genericBindings:
    - serializedVersion: 2
      path: 0
      attribute: 0
      script: {fileID: 0}
      typeID: 212
      customType: 23
      isPPtrCurve: 1
    pptrCurveMapping:
    - {fileID: -7221865514770959421, guid: af53ad7734c7e3e4aac6144b6f53990f, type: 3}
    - {fileID: 7109459470101515711, guid: af53ad7734c7e3e4aac6144b6f53990f, type: 3}
    - {fileID: 1520192549975761081, guid: af53ad7734c7e3e4aac6144b6f53990f, type: 3}
    - {fileID: 6710542926590696780, guid: af53ad7734c7e3e4aac6144b6f53990f, type: 3}
    - {fileID: 8961752267417923234, guid: af53ad7734c7e3e4aac6144b6f53990f, type: 3}
    - {fileID: -9169092748704697354, guid: af53ad7734c7e3e4aac6144b6f53990f, type: 3}
    - {fileID: -8331125957867574049, guid: af53ad7734c7e3e4aac6144b6f53990f, type: 3}
    - {fileID: -3910178557780502947, guid: af53ad7734c7e3e4aac6144b6f53990f, type: 3}
    - {fileID: 7180886126232182788, guid: af53ad7734c7e3e4aac6144b6f53990f, type: 3}
    - {fileID: -4682598717862603235, guid: af53ad7734c7e3e4aac6144b6f53990f, type: 3}
  m_AnimationClipSettings:
    serializedVersion: 2
    m_AdditiveReferencePoseClip: {fileID: 0}
    m_AdditiveReferencePoseTime: 0
    m_StartTime: 0
    m_StopTime: 1.0166667
    m_OrientationOffsetY: 0
    m_Level: 0
    m_CycleOffset: 0
    m_HasAdditiveReferencePose: 0
    m_LoopTime: 1
    m_LoopBlend: 0
    m_LoopBlendOrientation: 0
    m_LoopBlendPositionY: 0
    m_LoopBlendPositionXZ: 0
    m_KeepOriginalOrientation: 0
    m_KeepOriginalPositionY: 1
    m_KeepOriginalPositionXZ: 0
    m_HeightFromFeet: 0
    m_Mirror: 0
  m_EditorCurves: []
  m_EulerEditorCurves: []
  m_HasGenericRootTransform: 0
  m_HasMotionFloatCurves: 0
  m_Events: []
